…
readr::write_rds(tweets, file = "exemplo_tweets.Rds")
```

``` r
# abrindo os tweets salvos
tweets_salvos <- readr::read_rds("exemplo_tweets.Rds")

# carregando apenas o pipe:
library(magrittr, include.only = "%>%") 

# não quero ver a base toda, tem muitas colunas!
tweets_salvos %>% 
  dplyr::select(created_at, screen_name, text) 
#> # A tibble: 4,000 x 3
#>    created_at          screen_name   text                                       
#>    <dttm>              <chr>         <chr>                                      
#>  1 2021-05-11 12:55:22 theRcast      "A great surprise to start the ☀️ : My abst…
#>  2 2021-05-11 12:52:10 theRcast      "A great surprise to start the ☀️: My abstr…
#>  3 2021-05-08 12:52:09 theRcast      "@moriah_taylor58 That's great! We are sta…
#>  4 2021-05-11 10:56:57 theRcast      "My week of ✍️ ➕🎙 for #rstats @rweekly_org …
#>  5 2021-05-05 13:27:17 theRcast      "@cantabile {renv} is the easiest path to …
#>  6 2021-05-07 12:51:36 vsni          "Our free tool ASRgenomics offers molecula…
#>  7 2021-05-11 12:45:56 vsni          "ASRgenomics facilitates the generation of…
#>  8 2021-05-07 12:53:39 ASreml        "Our free tool ASRgenomics offers molecula…
#>  9 2021-05-11 12:43:45 ASreml        "ASRgenomics facilitates the generation of…
#> 10 2021-05-08 18:41:00 SourabhSKato… "Learn Practical Text Classification With …
#> # … with 3,990 more rows
```
…
