…
| created\_at         | word      |
|:--------------------|:----------|
| 2018-05-18 20:41:21 | just      |
| 2018-05-18 20:41:21 | met       |
| 2018-05-18 20:41:21 | with      |
| 2018-05-18 20:41:21 | un        |
| 2018-05-18 20:41:21 | secretary |
| 2018-05-18 20:41:21 | general   |

``` r
tidy_trump_tweets %>% 
  dplyr::count(word, sort = TRUE)
#> # A tibble: 8,690 x 2
#>    word      n
#>    <chr> <int>
#>  1 the    3671
#>  2 to     2216
#>  3 and    1959
#>  4 of     1606
#>  5 https  1281
#>  6 t.co   1258
#>  7 a      1248
#>  8 in     1213
#>  9 is     1045
#> 10 for     886
#> # … with 8,680 more rows
```
-   **Pré-processamento de texto**

-   Stopwords: palavras que não adicionam significado para o texto. É
    comum remover as stopwords das análises.

``` r
tidy_trump_tweets_without_stop_words <- 
  tidy_trump_tweets %>% 
  dplyr::anti_join(tidytext::stop_words) %>% 
  dplyr::filter(!word %in% c("https", "rt", "t.co", "amp"))
#> Joining, by = "word"

tidy_trump_tweets_without_stop_words  %>% 
  dplyr::count(word, sort = TRUE)
#> # A tibble: 8,117 x 2
#>    word          n
#>    <chr>     <int>
#>  1 people      302
#>  2 news        271
#>  3 president   235
#>  4 fake        234
#>  5 trump       218
#>  6 country     213
#>  7 america     204
#>  8 tax         190
#>  9 u.s         186
#> 10 time        173
#> # … with 8,107 more rows
```
…
  ) %>%
  tidyr::drop_na(word)
```

-   Stemização: reduzir cada palavra para sua forma mais básica, para
    fazer a análise

``` r
tidy_trump_tweets_stem <- tidy_trump_tweets_filtered %>%
  dplyr::mutate(word = SnowballC::wordStem(words = word, language = "en"))

tidy_trump_tweets_stem  %>% 
  dplyr::count(word, sort = TRUE)
#> # A tibble: 6,189 x 2
#>    word         n
#>    <chr>    <int>
#>  1 peopl      303
#>  2 news       271
#>  3 job        261
#>  4 presid     251
#>  5 countri    247
#>  6 tax        241
#>  7 fake       234
#>  8 trump      227
#>  9 american   222
#> 10 america    214
#> # … with 6,179 more rows
```
…
